{
    "allowUnknownTags": [
        "category",
        "subcategory"
    ],
    "source": {
        "excludePattern": "(node_modules/|static/)"
    },
    "plugins": [
        "plugins/markdown",
        "%_plugin_mermaid_%"
    ],
    "opts": {
        "template": "%_template_%",
        "encoding": "utf8",
        "destination": "%_destination_%",
        "readme": "%_readme_%",
        "tutorials": "%_tutorials_%",
        "recurse": true,
        "verbose": false
    },
    "templates": {
        "cleverLinks": false,
        "monospaceLinks": false,
        "default": {
            "outputSourceFiles": false
        }
    },
    "docdash": {
        "static": true,
        "sort": true,
        "sectionOrder": [
            "Namespaces",
            "Classes",
            "Tutorials"
        ],
        "meta": {
            "title": "%_title_%"
        },
        "search": true,
        "collapse": true,
        "wrap": false,
        "typedefs": false
    }
}